<?xml version="1.0" encoding="utf-8"?>
<!-- Generator: Adobe Illustrator 24.0.1, SVG Export Plug-In . SVG Version: 6.00 Build 0)  -->
<svg version="1.1" id="Calque_1" xmlns="http://www.w3.org/2000/svg" xmlns:xlink="http://www.w3.org/1999/xlink" x="0px" y="0px"
	 viewBox="0 0 1366 768" style="enable-background:new 0 0 1366 768;" xml:space="preserve">
<style type="text/css">
	.st0{fill:#FFFFFF;}
</style>
<g>
	<path class="st0" d="M766.7,88.5c0.5,0,0.9,0.1,1.3,0.2c0.4,0.2,0.8,0.4,1.1,0.7c0.3,0.3,0.5,0.7,0.7,1.1c0.2,0.4,0.2,0.8,0.2,1.3
		c0,0.4-0.1,0.9-0.2,1.3s-0.4,0.7-0.7,1c-0.3,0.3-0.7,0.6-1.1,0.7c-0.4,0.2-0.8,0.3-1.3,0.3c-0.4,0-0.9-0.1-1.3-0.2
		c-0.4-0.2-0.8-0.4-1.1-0.7c-0.3-0.3-0.6-0.7-0.7-1.1s-0.2-0.8-0.2-1.3s0.1-0.9,0.3-1.3c0.2-0.4,0.4-0.8,0.7-1.1
		c0.3-0.3,0.7-0.5,1-0.7C765.8,88.6,766.3,88.5,766.7,88.5 M769.6,91.8c0-0.4-0.1-0.8-0.2-1.1c-0.1-0.4-0.4-0.7-0.6-0.9
		c-0.3-0.3-0.6-0.5-1-0.6c-0.4-0.1-0.7-0.2-1.1-0.2c-0.4,0-0.8,0.1-1.1,0.2c-0.3,0.1-0.7,0.4-0.9,0.6c-0.3,0.3-0.5,0.6-0.7,1
		c-0.2,0.4-0.2,0.7-0.2,1.1c0,0.4,0.1,0.8,0.2,1.1c0.1,0.4,0.4,0.7,0.6,1c0.3,0.3,0.6,0.5,1,0.6c0.4,0.1,0.7,0.2,1.1,0.2
		c0.4,0,0.8-0.1,1.1-0.2c0.4-0.1,0.7-0.4,1-0.6c0.3-0.3,0.5-0.6,0.6-0.9C769.6,92.6,769.6,92.3,769.6,91.8 M766.8,89.9
		c0.5,0,0.9,0.1,1.2,0.3c0.3,0.2,0.4,0.4,0.4,0.8c0,0.3-0.1,0.5-0.2,0.7c-0.2,0.2-0.4,0.3-0.7,0.3l0.8,1.7h-0.7l-0.8-1.7H766v1.7
		h-0.6v-3.8H766.8z M766.7,90.3H766v1.4h0.7c0.4,0,0.7-0.1,0.8-0.2c0.2-0.1,0.2-0.3,0.2-0.5c0-0.2-0.1-0.4-0.3-0.5
		C767.4,90.3,767.1,90.3,766.7,90.3"/>
	<path class="st0" d="M454.4,110.2c0-2.9,0.6-5.8,1.7-8.4c1.1-2.7,2.8-5.1,4.9-7.2c2.1-2,4.4-3.6,6.9-4.6c2.5-1,5.2-1.5,8.1-1.5
		c3,0,5.7,0.5,8.2,1.6c2.5,1,4.8,2.6,6.9,4.6c2.2,2.1,3.8,4.5,4.9,7.1c1.1,2.6,1.6,5.4,1.6,8.5c0,3-0.5,5.8-1.4,8.3
		c-0.9,2.5-2.3,4.8-4.2,6.9c-2.2,2.4-4.6,4.1-7.3,5.4c-2.7,1.2-5.7,1.8-8.8,1.8c-6.1,0-11.2-2.1-15.3-6.4
		C456.5,121.8,454.4,116.5,454.4,110.2 M458.8,110.2c0,5.2,1.7,9.5,5,13c3.4,3.5,7.5,5.2,12.4,5.2c4.8,0,8.9-1.8,12.2-5.3
		c3.3-3.5,5-7.9,5-13c0-4.8-1.7-9-5.1-12.4c-3.4-3.5-7.5-5.2-12.3-5.2c-2,0-3.8,0.3-5.7,1c-1.8,0.7-3.5,1.7-5,3
		c-2,1.7-3.6,3.8-4.8,6.3C459.4,105.1,458.8,107.6,458.8,110.2"/>
</g>
<rect x="454.4" y="137.6" class="st0" width="43.2" height="5.2"/>
<rect x="470.9" y="97.9" class="st0" width="10.2" height="1.4"/>
<rect x="470.9" y="102" class="st0" width="10.2" height="1.4"/>
<rect x="470.9" y="106.3" class="st0" width="10.2" height="1.4"/>
<g>
	<path class="st0" d="M694.5,125.4c0-1.6,0.7-3,1.8-4l6.3,8.6c-0.8,0.5-1.8,0.8-2.8,0.8C696.8,130.7,694.5,128.4,694.5,125.4
		 M696.7,119.1c-1-1.8-0.6-4,1.1-5.3c1.7-1.4,4.2-1,5.6,0.8c0.5,0.6,0.7,1.3,0.8,2h1.7c-0.1-1-0.5-2.1-1.2-3
		c-1.9-2.5-5.4-3.1-7.9-1.2c-2.4,1.8-3,5.1-1.5,7.6c-1.5,1.3-2.5,3.2-2.5,5.4c0,3.9,3.1,7,7,7c1.4,0,2.7-0.4,3.8-1.1l0.8,1.1h2.1
		l-1.6-2.2c1.2-1.3,1.9-3,1.9-4.8h-1.7c0,1.3-0.5,2.5-1.3,3.5L696.7,119.1z"/>
	<path class="st0" d="M676.2,88.4c-1.1,0-2.1,0.4-2.1,0.9v37.2l-22.7-37.2c-2.4-1.5-3.8-0.8-5,0v0.4v41.9c0,0.5,0.9,0.9,2,0.9
		s2-0.4,2-0.9l0-37.2l22.5,36.8h0l0.2,0.4c2.7,1.7,4.1,0.6,5,0v0v-0.4V89.3C678.2,88.8,677.3,88.4,676.2,88.4"/>
	<path class="st0" d="M629.5,112.5L629.5,112.5c0.5,0,0.9-1,0.9-2.2c0-1.2-0.4-2.2-0.9-2.2v0h-18.5V92.7h18.5v-0.1
		c0.5,0,0.9-1,0.9-2.1c0-1.2-0.4-2.1-0.9-2.1h-19.8h-1.3h-0.1c0,0-1.1-0.1-1.7,1.5v41c0.6,1.6,1.7,1.5,1.7,1.5h1.4h19.8
		c0.5,0,0.9-1,0.9-2.1c0-1.2-0.4-2.1-0.9-2.1v0h-18.5v-15.7H629.5z"/>
	<path class="st0" d="M543.3,128.3L543.3,128.3l-25.3,0V89.2h-0.1c0-0.5-0.9-0.9-2.1-0.9c-1.2,0-2.1,0.4-2.1,0.9v41.8l0.1,0
		c0.5,1.5,1.6,1.4,1.6,1.4h1.3h26.5c0.5,0,0.9-0.9,0.9-2.1C544.1,129.3,543.7,128.3,543.3,128.3"/>
	<path class="st0" d="M586.1,110.6c-1.9-1-5.4-1.8-10.6-2.3c-3.7-0.2-6.2-0.6-7.6-1.3c-2.4-1.1-3.6-3.3-3.6-6.4c0-2.1,0.7-4,2.2-5.5
		c1.4-1.5,3.2-2.3,5.3-2.3h15.6v0c0.5,0,0.9-1,0.9-2.2s-0.4-2.1-0.9-2.2v0h-15.6c-3.2,0-5.9,1.2-8.2,3.5c-2.3,2.3-3.4,5.2-3.4,8.6
		c0,4.8,1.6,8,4.7,9.8c1.9,1,5.4,1.8,10.6,2.3c3.7,0.2,6.2,0.6,7.6,1.3c2.4,1.1,3.6,3.3,3.6,6.4c0,2.1-0.7,4-2.2,5.5
		c-1.4,1.5-3.2,2.3-5.3,2.3h-17.8v0c-0.5,0.1-0.9,1-0.9,2.2c0,1.2,0.4,2.1,0.9,2.2v0h17.8c3.2,0,5.9-1.2,8.2-3.5
		c2.3-2.3,3.4-5.2,3.4-8.6C590.7,115.6,589.2,112.3,586.1,110.6"/>
	<path class="st0" d="M759.5,111.4l-1.2,0l0,0h-0.4h-15.4c0,0,0,0,0,0c-0.5,0-0.9,0.8-0.9,1.9c0,1,0.4,1.9,0.9,1.9c0,0,0,0,0,0v0
		h14.3c-0.9,4-2.9,7.2-6,9.7c-3.1,2.5-6.6,3.7-10.5,3.7c-4.9,0-9.1-1.7-12.5-5.2c-3.4-3.5-5-7.8-5-13c0-4.9,1.7-9.1,5.1-12.6
		s7.5-5.2,12.4-5.2c2.8,0,5.4,0.6,7.7,1.8s4.4,3.1,6.4,5.6c0,0,0.7,0.9,2.9,0.7c2.2-0.1,2.2-0.7,2.2-0.7c-2-3.7-4.6-6.5-7.9-8.5
		c-3.3-2-7-3-11.1-3c-3.1,0-5.9,0.5-8.5,1.5c-2.5,1-4.9,2.6-7,4.6c-2.2,2.1-3.8,4.5-5,7.2c-1.1,2.7-1.7,5.5-1.7,8.5
		c0,6.3,2.1,11.7,6.2,15.9c4.1,4.3,9.3,6.4,15.4,6.4c6,0,11-2,15.1-6c3-2.9,5-6.4,6-10.5c0.2-0.7,0.3-1.5,0.4-2.3c0,0,0,0,0,0
		c0,0,0-0.1,0-0.2C761.6,113.1,761.5,111.7,759.5,111.4"/>
</g>
</svg>
